AGO-Data-Project - AGO_Prelim
…
duplicated_index <- which(duplicated(list_of_duplicate_amounts[, c("Awarded Amount", "Agency", "Supplier")]) | 
                         duplicated(list_of_duplicate_amounts[, c("Awarded Amount", "Agency", "Supplier" )], fromLast = TRUE))

duplicate_amount <- list_of_duplicate_amounts[duplicated_index,]

From the above, we see entries that are duplicated for whether the amount is similar and whether the agency or suppliers that claims were made under are the same. Due to the categorisation of the claims amount. The value of an awarded amount split into two procurement claim can evade the ITT categorisation checks.These procurement claims should be highlighted as potential fraudulant activities.

4 Claims made within the same day

# Find the index of duplicated values
duplicated_index <- which(duplicated(clean_data$Date) | duplicated(clean_data$Date, fromLast = TRUE))
same_day_claims <- clean_data[duplicated_index,]
same_day_claims

# A tibble: 6,702 × 8
   `S/N` `Procurement Code` Procurem…¹ Agency Procu…² Date       Suppl…³ Award…⁴
   <dbl> <chr>              <chr>      <chr>  <chr>   <date>     <chr>     <dbl>
 1     3 ITQ20170002        ITQ        Minis… Health… 2017-01-05 CleanH…   14183
 2     4 ITQ20170003        ITQ        Agenc… Health… 2017-01-08 EverPr…   19908
 3     5 ITQ20170004        ITQ        Depar… Waste … 2017-01-12 UrbanT…   42332
 4     6 ITQ20170005        ITQ        Offic… Emerge… 2017-01-12 GrandR…   65341
 5     7 ITQ20170006        ITQ        Insti… Pest c… 2017-01-13 Golden…   34956
 6     8 ITQ20170007        ITQ        Natio… Energy… 2017-01-17 TrueWa…   39950
 7     9 ITQ20170008        ITQ        Depar… Waste … 2017-01-18 CleanS…   14944
 8    10 ITQ20170009        ITQ        Offic… Energy… 2017-01-19 SkyHig…   77708
 9    11 ITQ20170010        ITQ        Minis… Indoor… 2017-01-20 GrandV…   92488
10    12 ITQ20170011        ITQ        Minis… Buildi… 2017-01-23 EliteT…   21771
# … with 6,692 more rows, and abbreviated variable names ¹​`Procurement Type`,
#   ²​`Procurement Description`, ³​Supplier, ⁴​`Awarded Amount`
…
